^E:\C++ PROJECT\MULTITHREAD\MULTITHREAD\MULTITHREAD.RC
E:\C++ PROJECT\MULTITHREAD\MULTITHREAD\RESOURCE.H
E:\C++ PROJECT\MULTITHREAD\MULTITHREAD\TARGETVER.H
E:\WINDOWS KITS\10\INCLUDE\10.0.19041.0\SHARED\SDKDDKVER.H
E:\MICROSOFT VISUAL STUDIO\2019\COMMUNITY\VC\TOOLS\MSVC\14.29.30037\ATLMFC\INCLUDE\AFXRES.H
E:\WINDOWS KITS\10\INCLUDE\10.0.19041.0\UM\WINRES.H
E:\WINDOWS KITS\10\INCLUDE\10.0.19041.0\UM\WINRESRC.H
E:\WINDOWS KITS\10\INCLUDE\10.0.19041.0\UM\WINUSER.RH
E:\WINDOWS KITS\10\INCLUDE\10.0.19041.0\SHARED\WINAPIFAMILY.H
E:\WINDOWS KITS\10\INCLUDE\10.0.19041.0\SHARED\WINPACKAGEFAMILY.H
E:\WINDOWS KITS\10\INCLUDE\10.0.19041.0\UM\COMMCTRL.RH
E:\WINDOWS KITS\10\INCLUDE\10.0.19041.0\UM\DDE.RH
E:\WINDOWS KITS\10\INCLUDE\10.0.19041.0\UM\WINNT.RH
E:\WINDOWS KITS\10\INCLUDE\10.0.19041.0\UM\DLGS.H
E:\WINDOWS KITS\10\INCLUDE\10.0.19041.0\UM\WINVER.H
E:\WINDOWS KITS\10\INCLUDE\10.0.19041.0\SHARED\SPECSTRINGS.H
E:\MICROSOFT VISUAL STUDIO\2019\COMMUNITY\VC\TOOLS\MSVC\14.29.30037\INCLUDE\SAL.H
E:\MICROSOFT VISUAL STUDIO\2019\COMMUNITY\VC\TOOLS\MSVC\14.29.30037\INCLUDE\CONCURRENCYSAL.H
E:\WINDOWS KITS\10\INCLUDE\10.0.19041.0\SHARED\DRIVERSPECS.H
E:\WINDOWS KITS\10\INCLUDE\10.0.19041.0\SHARED\SDV_DRIVERSPECS.H
E:\WINDOWS KITS\10\INCLUDE\10.0.19041.0\UM\VERRSRC.H
E:\C++ PROJECT\MULTITHREAD\MULTITHREAD\RES\MULTITHREAD.RC2
E:\MICROSOFT VISUAL STUDIO\2019\COMMUNITY\VC\TOOLS\MSVC\14.29.30037\ATLMFC\INCLUDE\L.CHS\AFXRES.RC
E:\C++ PROJECT\MULTITHREAD\MULTITHREAD\RES\MULTITHREAD.ICO
E:\C++ PROJECT\MULTITHREAD\MULTITHREAD\RES\BITMAP1.BMP
